<svg xmlns="http://www.w3.org/2000/svg" width="38.201" height="38.201" viewBox="0 0 38.201 38.201">
  <path id="Icon_map-health" data-name="Icon map-health" d="M38.921,13.454a.8.8,0,0,0-.8-.8H27.779a.8.8,0,0,1-.8-.8V1.516a.8.8,0,0,0-.8-.8H13.454a.8.8,0,0,0-.8.8V11.862a.8.8,0,0,1-.8.8H1.516a.8.8,0,0,0-.8.8V26.187a.8.8,0,0,0,.8.8H11.862a.8.8,0,0,1,.8.8V38.125a.8.8,0,0,0,.8.8H26.187a.8.8,0,0,0,.8-.8V27.779a.8.8,0,0,1,.8-.8H38.125a.8.8,0,0,0,.8-.8Z" transform="translate(-0.72 -0.72)" fill="#fff"/>
</svg>
