<svg xmlns="http://www.w3.org/2000/svg" width="231.999" height="221.192" viewBox="0 0 231.999 221.192">
  <path id="Path_2805" data-name="Path 2805" d="M228.4,100.95,149.264,6.84A19.186,19.186,0,0,0,134.576,0H0L93.58,110.781.437,221.192H134.612a19.19,19.19,0,0,0,14.667-6.809l71.456-84.592.015-.021,7.627-9.03a15.362,15.362,0,0,0,.021-19.791" fill="#ddf246"/>
</svg>
