<svg xmlns="http://www.w3.org/2000/svg" width="48.638" height="70" viewBox="0 0 48.638 70">
  <path id="Path_899" data-name="Path 899" d="M50.622,8.9a5.82,5.82,0,0,0-5.785,5.849,5.51,5.51,0,0,0,.381,2.035H33.964A8.249,8.249,0,0,0,25.7,25.05V70.635A8.249,8.249,0,0,0,33.964,78.9H66.071a8.249,8.249,0,0,0,8.265-8.265V25.05a8.249,8.249,0,0,0-8.265-8.265H56.027a5.51,5.51,0,0,0,.381-2.035A5.82,5.82,0,0,0,50.622,8.9Zm0,3.878a2,2,0,0,1,1.971,2.034,2.037,2.037,0,0,1-1.971,2.035,2.036,2.036,0,0,1,0-4.069ZM33.964,20.6h4.642v3.179a1.873,1.873,0,0,0,1.907,1.907h19.9a1.873,1.873,0,0,0,1.907-1.907V20.6h3.75a4.52,4.52,0,0,1,4.515,4.45V70.635a4.423,4.423,0,0,1-4.45,4.451H33.964a4.423,4.423,0,0,1-4.45-4.451V25.05A4.423,4.423,0,0,1,33.964,20.6Zm8.457,0H58.507v1.272H42.421ZM47,30.58l-5.594,6.8-2.288-3.369L36.7,35.793l3.37,4.96a1.419,1.419,0,0,0,1.144.636h.063a1.594,1.594,0,0,0,1.145-.509l6.8-8.392Zm6.867,4.006V38.4h9.092V34.586ZM47,45.2l-5.594,6.8-2.288-3.369L36.7,50.416l3.37,4.96a1.419,1.419,0,0,0,1.144.636h.063a1.594,1.594,0,0,0,1.145-.509l6.8-8.392Zm6.867,4.006v3.815h9.092V49.209ZM42.484,61.542a4.45,4.45,0,1,0,4.45,4.45A4.423,4.423,0,0,0,42.484,61.542Zm11.381,2.29v3.815h9.092V63.832Z" transform="translate(-25.699 -8.9)" fill="#fff"/>
</svg>
