<svg xmlns="http://www.w3.org/2000/svg" xmlns:xlink="http://www.w3.org/1999/xlink" width="196.31" height="42.749" viewBox="0 0 196.31 42.749">
  <defs>
    <clipPath id="clip-path">
      <rect id="Rectangle_662" data-name="Rectangle 662" width="196.311" height="42.749" fill="none"/>
    </clipPath>
  </defs>
  <g id="Group_2928" data-name="Group 2928" clip-path="url(#clip-path)">
    <path id="Path_989" data-name="Path 989" d="M6.563,1.369A3.857,3.857,0,0,1,6.474.124C7.111-.021,24.038-.047,24.943.09V1.416c-.549.064-1.079.13-1.61.186A2.831,2.831,0,0,0,20.52,4.234a10.292,10.292,0,0,0-.167,1.778c0,.407-.006.814-.006,1.22q0,11.471,0,22.941a19.343,19.343,0,0,1-.625,5.3,9.184,9.184,0,0,1-4.787,6.039,11.1,11.1,0,0,1-3.477,1.051,13.369,13.369,0,0,1-5.636-.247,7.789,7.789,0,0,1-5.1-3.843A5.617,5.617,0,0,1,.233,34.15,3.748,3.748,0,0,1,2.963,31.5a3.252,3.252,0,0,1,2.964.717,4.261,4.261,0,0,1,1.59,3.8,2.786,2.786,0,0,1-.559,1.416c-.188.264-.4.517-.56.8a1.589,1.589,0,0,0,.859,2.432,3.787,3.787,0,0,0,2.926-.175,2.34,2.34,0,0,0,1.124-1.333,6.832,6.832,0,0,0,.473-2.21c.02-.406.018-.814.018-1.22q0-15.009,0-30.018a7.9,7.9,0,0,0-.155-1.937,2.6,2.6,0,0,0-2.011-2,10.877,10.877,0,0,0-2.243-.333,2.311,2.311,0,0,1-.826-.075" transform="translate(0 0)"/>
    <path id="Path_990" data-name="Path 990" d="M85.463,32.482a3.848,3.848,0,0,1,.027.95c-.025.026-.042.048-.062.067s-.041.044-.063.044q-4.552.015-9.1.025a.384.384,0,0,1-.336-.105v-.985c.106-.221.33-.18.5-.233a1.788,1.788,0,0,0,1.295-1.683,8.747,8.747,0,0,0,.031-.893q0-5.936,0-11.873a7.636,7.636,0,0,0-.2-2.094,1.986,1.986,0,0,0-3.137-1.34,6.064,6.064,0,0,0-2.071,2.022,1.127,1.127,0,0,0-.165.694q0,6.465,0,12.93a3.237,3.237,0,0,0,.127.878,1.84,1.84,0,0,0,1.35,1.373c.154.044.31.08.479.122a2.847,2.847,0,0,1,.089,1.148h-9.9a2.327,2.327,0,0,1-.022-1.082,3.918,3.918,0,0,1,.938-.312,1.635,1.635,0,0,0,1.114-1.369,12.16,12.16,0,0,0,.126-1.617q-.015-6.668,0-13.336a15.621,15.621,0,0,0-.1-1.618,1.584,1.584,0,0,0-1.193-1.466c-.28-.089-.567-.156-.89-.243a4.734,4.734,0,0,1-.007-1.139h7.861v3.43c.411-.6.7-1.064,1.036-1.5a5.77,5.77,0,0,1,4.924-2.5,5.069,5.069,0,0,1,4.814,3.457,9.637,9.637,0,0,1,.591,3.658c.012,3.822,0,7.644.007,11.466,0,.434.009.869.044,1.3A1.539,1.539,0,0,0,85.016,32.3a.74.74,0,0,1,.448.179" transform="translate(-1.185 -0.199)"/>
    <path id="Path_991" data-name="Path 991" d="M119.648,12.529V11.36h7.717v.889q0,7.6,0,15.21a8.375,8.375,0,0,0,.172,2.1,1.941,1.941,0,0,0,2.243,1.534,2.99,2.99,0,0,0,1.779-.7,9.86,9.86,0,0,0,1.382-1.429v-.37q0-6.628,0-13.258c0-.243,0-.489-.014-.731a1.97,1.97,0,0,0-1.77-2c-.21-.04-.426-.054-.652-.082a1.833,1.833,0,0,1-.048-1.153h8.133a2.659,2.659,0,0,1,.053.893q.006,8.011,0,16.023a9.387,9.387,0,0,0,.078,1.377,1.77,1.77,0,0,0,1.739,1.8c.132.023.266.026.416.038a1.546,1.546,0,0,1,.026,1.116c-.746.1-1.516.2-2.286.309a28.62,28.62,0,0,0-4.064.722c-.51.152-1.007.354-1.591.563V31.182c-.454.427-.8.765-1.157,1.086a7.134,7.134,0,0,1-3.381,1.831,5.37,5.37,0,0,1-4.747-1.012,5.315,5.315,0,0,1-1.51-2.264,9.811,9.811,0,0,1-.558-3.505c-.011-3.823,0-7.646,0-11.468,0-.434,0-.869-.027-1.3a1.8,1.8,0,0,0-1.511-1.932c-.125-.039-.257-.054-.423-.087" transform="translate(-2.207 -0.209)"/>
    <path id="Path_992" data-name="Path 992" d="M36.34,29.049V26.532q0-5.451,0-10.9c0-.379,0-.76-.029-1.138a1.846,1.846,0,0,0-1.671-1.884c-.235-.046-.476-.057-.747-.087a3.489,3.489,0,0,1-.018-1.165h8.164a2.505,2.505,0,0,1,.052.885q.007,8.095.007,16.19a10.36,10.36,0,0,0,.105,1.534,1.666,1.666,0,0,0,1.507,1.464c.185.039.376.043.587.066.168.332.034.679.112,1.085-2.671.475-5.377.5-7.972,1.622-.036-1.03,0-1.965-.025-2.936a1.8,1.8,0,0,0-.747.58,7.423,7.423,0,0,1-3.945,2.278,5.112,5.112,0,0,1-5.369-1.85,6.229,6.229,0,0,1-1.134-2.828,15.226,15.226,0,0,1-.166-2.51q.01-5.735,0-11.47a7.984,7.984,0,0,0-.1-1.372,1.636,1.636,0,0,0-1.134-1.35c-.225-.083-.454-.154-.713-.241a3.625,3.625,0,0,1,.011-1.145H30.75v.883q0,7.647,0,15.3a8.608,8.608,0,0,0,.157,1.777,2.015,2.015,0,0,0,2.622,1.731,3.236,3.236,0,0,0,1.647-.82c.4-.365.764-.766,1.168-1.175" transform="translate(-0.425 -0.209)"/>
    <path id="Path_993" data-name="Path 993" d="M98.627,19.964a35.47,35.47,0,0,0-.139-4.941,2.772,2.772,0,0,0-2.057-2.542,5.223,5.223,0,0,0-2.178-.043,2.24,2.24,0,0,0-1.069.554,1.26,1.26,0,0,0-.347,1.729c.244.451.539.875.77,1.332a2.929,2.929,0,0,1-.52,3.164A2.786,2.786,0,0,1,90,19.836a2.568,2.568,0,0,1-1.585-2.445,5.575,5.575,0,0,1,3.3-5.72,8.445,8.445,0,0,1,2.949-.823,11.532,11.532,0,0,1,5.212.477,6.162,6.162,0,0,1,4.217,4.547,7.724,7.724,0,0,1,.109,1.78q.007,5.855,0,11.71a3.893,3.893,0,0,0,.111,1.126c.2.663.684.83,1.216.4.124-.1.2-.256.392-.293.327.183.39.551.568.822a5.229,5.229,0,0,1-5.358,2.764,2.628,2.628,0,0,1-2.121-1.8c-.165-.422-.276-.865-.42-1.33a3.067,3.067,0,0,0-.938.8,8.19,8.19,0,0,1-4.23,2.261,5.386,5.386,0,0,1-2.258.012,4.35,4.35,0,0,1-3.382-3.552c-.7-3.064.607-5.391,3.084-7.091a23.827,23.827,0,0,1,4.937-2.41,20.506,20.506,0,0,1,2.437-.883,1.677,1.677,0,0,0,.382-.228M98.561,28.8V21.838a5.312,5.312,0,0,0-1.754.669,5.5,5.5,0,0,0-3.042,6.343,2.214,2.214,0,0,0,1.464,1.885,2.28,2.28,0,0,0,2.272-.751c.039-.037.072-.081.108-.122l.952-1.062" transform="translate(-1.616 -0.198)"/>
    <path id="Path_994" data-name="Path 994" d="M199.654,22.757a15.1,15.1,0,0,1-1.155,6.29,9.581,9.581,0,0,1-4.182,4.985,7.455,7.455,0,0,1-8.4-.936,11.214,11.214,0,0,1-3.345-5.44,17.4,17.4,0,0,1,.208-10.533,9.759,9.759,0,0,1,4.311-5.684,7.043,7.043,0,0,1,7.406,0,9.778,9.778,0,0,1,4.191,5.391,15.389,15.389,0,0,1,.967,5.925m-5.8-.65a39.784,39.784,0,0,0-.364-6.459,8.044,8.044,0,0,0-.766-2.463,2.063,2.063,0,0,0-1.887-1.2,2.184,2.184,0,0,0-1.986,1.195,5.746,5.746,0,0,0-.57,1.513,28.02,28.02,0,0,0-.608,5.88,64.087,64.087,0,0,0,.28,8.681,7.432,7.432,0,0,0,.927,2.995,2.161,2.161,0,0,0,3.788.017,8.165,8.165,0,0,0,.511-1.1,10.6,10.6,0,0,0,.473-2.79c.186-1.943.191-3.895.2-6.274" transform="translate(-3.355 -0.192)"/>
    <path id="Path_995" data-name="Path 995" d="M152.481,33.354h-9.662V32.3c.1-.182.311-.16.486-.212a1.964,1.964,0,0,0,1.422-1.615,7.441,7.441,0,0,0,.154-1.451q-.009-12.033,0-24.065a6.462,6.462,0,0,0-.161-1.367A1.759,1.759,0,0,0,143.3,2.1a4.471,4.471,0,0,1-.477-.151,3.765,3.765,0,0,1-.034-1.081h7.742a2.672,2.672,0,0,1,.049.888q.006,13.456,0,26.91c0,.38,0,.759.008,1.139a2.17,2.17,0,0,0,1.883,2.429c.14.16.078.357.079.539a.944.944,0,0,1-.076.58" transform="translate(-2.634 -0.016)"/>
    <path id="Path_996" data-name="Path 996" d="M117.834,32.255v1.093H108.05V32.264a1.193,1.193,0,0,1,.293-.13A2.159,2.159,0,0,0,110.1,30c.027-.324.02-.651.02-.976q0-12,0-23.994a5.038,5.038,0,0,0-.078-1.375A1.844,1.844,0,0,0,108.5,2.086a1.22,1.22,0,0,1-.306-.106.851.851,0,0,1-.149-.116V.938a71.243,71.243,0,0,1,7.785-.049V28.825a8.674,8.674,0,0,0,.068,1.214c.2,1.41.54,1.831,1.941,2.215" transform="translate(-1.993 -0.015)"/>
    <path id="Path_997" data-name="Path 997" d="M175.032,14.734a1.9,1.9,0,0,0-1.417.978,6.271,6.271,0,0,0-.952,3.393c-.041,3.6-.017,7.21,0,10.814a6.25,6.25,0,0,0,.145,1.124,2.04,2.04,0,0,0,1.939,1.865c.213.032.427.057.64.088.022,0,.04.032.1.085a4.853,4.853,0,0,1,.061.983,102.84,102.84,0,0,1-10.437.105,2.832,2.832,0,0,1-.058-1.16c.109-.041.18-.076.254-.1,1.464-.367,1.7-.956,1.833-2.3a7.267,7.267,0,0,0,.013-.731q0-7.319,0-14.637a8.131,8.131,0,0,0-.128-1.369,1.668,1.668,0,0,0-1.469-1.5,2.642,2.642,0,0,1-.313-.076.9.9,0,0,1-.16-.092,5.472,5.472,0,0,1-.064-1.1,69.41,69.41,0,0,1,7.464-.03v3.775a3.246,3.246,0,0,0,.658-.924,10.717,10.717,0,0,1,2.04-2.5,3.82,3.82,0,0,1,2.67-1,2.824,2.824,0,0,1,2.553,1.583,4.736,4.736,0,0,1,.216,4.153,2.4,2.4,0,0,1-.947,1.18,2.106,2.106,0,0,1-2.906-.449,9.326,9.326,0,0,1-.8-1.221c-.247-.381-.435-.821-.934-.945" transform="translate(-3.044 -0.192)"/>
    <path id="Path_998" data-name="Path 998" d="M46.794,12.477a1.843,1.843,0,0,1,.01-1.132h7.641v3.6c.287.013.322-.2.412-.335a13.318,13.318,0,0,1,2.08-2.589,4.425,4.425,0,0,1,3.077-1.246,3.267,3.267,0,0,1,3.2,2.8,5.435,5.435,0,0,1,0,1.936,2.625,2.625,0,0,1-2.722,2.269,2.39,2.39,0,0,1-1.61-.838,9.725,9.725,0,0,1-.822-1.2c-.665-.984-1.341-1.036-2.16-.169a4.654,4.654,0,0,0-1.1,2.4,10.311,10.311,0,0,0-.184,2.017c.018,2.684.008,5.367.007,8.051a16.3,16.3,0,0,0,.125,2.186,2.093,2.093,0,0,0,2,2.074c.289.046.6-.029.882.187V33.53H46.767a2.26,2.26,0,0,1-.035-1.075,3.636,3.636,0,0,1,.933-.322A1.738,1.738,0,0,0,48.8,30.868a5.069,5.069,0,0,0,.134-1.124q0-7.278,0-14.555a6.991,6.991,0,0,0-.061-.809,1.939,1.939,0,0,0-1.782-1.8,2.331,2.331,0,0,1-.235-.056.253.253,0,0,1-.065-.044" transform="translate(-0.861 -0.199)"/>
    <path id="Path_999" data-name="Path 999" d="M162.232,31.2A4.525,4.525,0,0,1,161,34.188,2.879,2.879,0,0,1,156.5,33.9a5.2,5.2,0,0,1,.185-6.188,2.81,2.81,0,0,1,4.228-.162,5.064,5.064,0,0,1,1.322,3.654" transform="translate(-2.87 -0.492)"/>
  </g>
</svg>
