<svg xmlns="http://www.w3.org/2000/svg" width="195" height="46.263" viewBox="0 0 195 46.263">
  <g id="Yload_logo" data-name="Yload logo" transform="translate(-126 -14.063)">
    <g id="Group_571" data-name="Group 571" transform="translate(195.644 26.159)">
      <g id="Group_570" data-name="Group 570" transform="translate(0 0)">
        <path id="Path_878" data-name="Path 878" d="M1313.784,388.214V377.736l-9.693-15.358h5.427l6.825,11.126,6.792-11.126h5.358l-9.863,15.358v10.478Z" transform="translate(-1304.091 -361.251)" fill="#fff"/>
        <path id="Path_879" data-name="Path 879" d="M1410.324,388.18v-25.8h4.847v21.4h10.785v4.4Z" transform="translate(-1383.021 -361.251)" fill="#fff"/>
        <path id="Path_880" data-name="Path 880" d="M1491.45,387.116c-7.884,0-14.2-6.109-14.2-13.481,0-7.406,6.314-13.515,14.2-13.515,7.782,0,14.1,5.836,14.1,13.618C1505.545,381.075,1499.061,387.116,1491.45,387.116Zm0-22.628a9.009,9.009,0,0,0-9.044,9.01c0,4.846,3.993,9.283,8.806,9.283a9.148,9.148,0,0,0,.239-18.294Z" transform="translate(-1432.748 -359.573)" fill="#fff"/>
        <path id="Path_881" data-name="Path 881" d="M1611.2,384.957l-2.252-4.744h-11.707l-2.252,4.744H1589.6l13.515-26.962,13.515,26.962Zm-8.123-17-3.856,8.191H1607Z" transform="translate(-1516.22 -357.995)" fill="#fff"/>
        <path id="Path_882" data-name="Path 882" d="M1706.721,388.214V362.378h7.85c7.747,0,14.027,4.471,14.027,12.935,0,8.225-5.87,12.9-14.846,12.9Zm7.85-4.4c4.778,0,8.84-2.321,8.84-8.6,0-4.915-3.344-8.43-8.225-8.43h-3.618v17.031Z" transform="translate(-1603.242 -361.251)" fill="#fff"/>
      </g>
    </g>
    <g id="Group_572" data-name="Group 572" transform="translate(126 14.063)">
      <path id="Path_883" data-name="Path 883" d="M1060.264,432.135l12.888-15.257a2.078,2.078,0,0,0-1.586-3.418l-21.346-.013-16.8,19.916h24.2A3.463,3.463,0,0,0,1060.264,432.135Z" transform="translate(-1033.34 -387.1)" fill="#fff"/>
      <path id="Path_884" data-name="Path 884" d="M1091.2,413.447l12.914,15.291-15.537-12.181Z" transform="translate(-1074.325 -387.099)" fill="rgba(31,31,31,0.27)"/>
      <path id="Path_885" data-name="Path 885" d="M1033.111,335.71h24.272a3.462,3.462,0,0,1,2.65,1.234l14.272,16.974a2.77,2.77,0,0,1,0,3.57l-11.4,13.492Z" transform="translate(-1033.111 -329.342)" fill="#fff"/>
      <path id="Path_886" data-name="Path 886" d="M1185.855,319.056a8.125,8.125,0,1,1,8.125,8.125,8.125,8.125,0,0,1-8.125-8.125" transform="translate(-1146.599 -310.931)" fill="#fff"/>
    </g>
  </g>
</svg>
